{
  "primary": "#218096",
  "primaryHover": "#32899d",
  "primaryFocus": "rgba(255, 255, 255, .24)",
  "primaryPressed": "rgba(255, 255, 255, .32)",
  "primaryDark": "#005265",
  "primaryLight": "#5FAEC3",
  "primaryVeryLight": "rgba(41,130,151,0.1)",
  "secondary": "#ffffff",
  "secondaryHover": "rgba(0, 0, 0, .04)",
  "secondaryFocus": "rgba(33,128,150,0.08)",
  "secondaryPressed": "rgba(33,128,150,0.24)",
  "textLightPrimary": "rgba(0, 0, 0, 0.87)",
  "textLightSecondary": "rgba(0, 0, 0, 0.54)",
  "textLightDisabled": "rgba(0, 0, 0, 0.38)",
  "textDarkPrimary": "rgba(255, 255, 255, 1)",
  "textDarkSecondary": "rgba(255, 255, 255, 0.7)",
  "textDarkDisabled": "rgba(255, 255, 255, 0.5)",
  "whiteGray": "#F5F5F5",
  "whiteGrayDark": "#EEEEEE",
  "whiteGrayLight": "#FAFAFA",
  "gray": "rgba(0,0,0,0.38)",
  "grayDark": "rgba(0,0,0,0.54)",
  "grayLight": "rgba(0,0,0,0.22)",
  "border": "#dddddd",
  "borderLight": "#F5F5F5",
  "black": "#000000",
  "white": "#ffffff",
  "highlights": "#EEFCFF",
  "warningDark": "#FF8100",
  "warningLight": "#FFB900",
  "successDark": "#07985A",
  "successLight": "#3CE19B",
  "errorDark": "#DA3B00",
  "errorLight": "#FF654B"
}
